{
"spider":"./jar/xx.jar",
"lives":[{"group":"redirect","channels":[{"name":"live","urls":["proxy://do=live&type=txt&ext=aHR0cHM6Ly9naXRsYWIuY29tL211bGx2aXAxL3R2Ym94Ly0vcmF3L21haW4vWkIudHh0"]}]}],

"sites":[
{"key":"csp_Alist1","name":"🔞专用接口🔞","type":3,"api":"csp_Alist","searchable":1,"quickSearch":0,"filterable":0,"ext":"9t$https://drive.9t.ee#"},
{"key":"美少女","name":"🔞美少女","type":0,"api":"https://www.msnii.com/api/xml.php","searchable":1,"quickSearch":1,"filterable":1},
{"key":"*点点娱乐","name":"🔞点点娱乐","type":0,"api":"https://xx55zyapi.com/home/cjapi/ascf/mc10/vod/xml","searchable":1,"quickSearch":1,"filterable":0},
{"key":"*大屌丝资源","name":"🔞大屌丝","type":0,"api":"http://www.caiji24.com/home/cjapi/p0d2/mc10/vod/xml","searchable":1,"quickSearch":1,"filterable":0},
{"key":"*色屌丝资源","name":"🔞色屌丝","type":0,"api":"http://sdszyapi.com/home/cjapi/asbb/mc10/vod/xml","searchable":1,"quickSearch":1,"filterable":0},
{"key":"zp136","name":"🔞速播","type":0,"api":"http://www.ggmmzy.com:9999/inc/xml","searchable":1,"quickSearch":1,"filterable":0},
{"key":"zp127","name":"🔞色色资源","type":0,"api":"http://secj8.com/inc/sapi.php?ac=videolist","searchable":1,"quickSearch":1,"filterable":0},
{"key":"afasu","name":"🔞小湿妹(已修复)","type":0,"api":"https://www.afasu.com/api/xml.php","searchable":1,"quickSearch":1,"filterable":1},
{"key":"*奶茶资源","name":"🔞奶茶资源","type":1,"api":"https://caiji.naichaapi.com/inc/apijson_vod.php","searchable":1,"quickSearch":1,"filterable":0},
{"key":"(18+)大地资源","name":"🔞大地资源","type":0,"api":"https://dadiapi.com/api.php/","searchable":1,"quickSearch":1,"filterable":0},
{"key":"zp157","name":"🔞久草资源","type":0,"api":"http://jcspcj8.com/api?ac=list","searchable":1,"quickSearch":1,"filterable":0},
{"key":"*咪咪资源","name":"🔞咪咪资源","type":0,"api":"http://www.caiji25.com/home/cjapi/p0as/mc10/vod/xml","searchable":1,"quickSearch":1,"filterable":0},
{"key":"zp116","name":"🔞字幕网","type":0,"api":"http://zmcj88.com/api?ac=list","searchable":1,"quickSearch":1,"filterable":0},
{"key":"*精工厂资源","name":"🔞精工厂","type":0,"api":"https://jgczyapi.com/home/cjapi/kld2/mc10/vod/xml","searchable":1,"quickSearch":1,"filterable":0},
{"key":"zp068","name":"🔞环亚资源","type":0,"api":"http://wmcj8.com/inc/sapi.php?ac=videolist","searchable":1,"quickSearch":1,"filterable":0},
{"key":"*大MM资源","name":"🔞大MM","type":0,"api":"https://www.dmmapi.com/home/cjapi/asd2c7/mc10/vod/xml","searchable":1,"quickSearch":1,"filterable":0},
{"key":"*酷伦理","name":"🔞酷伦理","type":1,"api":"https://api.kudian70.com/api.php/provide/vod/","searchable":1,"quickSearch":1,"filterable":0},
{"key":"zp085","name":"🔞玖玖资源","type":0,"api":"http://99zywcj.com/inc/sapi.php?ac=videolist","searchable":1,"quickSearch":1,"filterable":0},
{"key":"番号资源","name":"🔞番号资源(切)","type":1,"api":"http://fhapi9.com/api.php/provide/vod/at/json","searchable":1,"quickSearch":1},
{"key":"zp061","name":"🔞富二代资源","type":0,"api":"http://f2dcj6.com/sapi/?ac=videolist","searchable":1,"quickSearch":1,"filterable":0},
{"key":"*523资源","name":"🔞523av","type":1,"api":"https://caiji.523zyw.com/inc/apijson_vod.php","searchable":1,"quickSearch":1,"filterable":0},
{"key":"zp123","name":"🔞色猫资源","type":0,"api":"https://api.maozyapi.com/inc/api.php/provide/vod/at/xml/","searchable":1,"quickSearch":1,"filterable":0},
{"key":"*色窝资源","name":"🔞色窝资源","type":1,"api":"https://sewozyapi.com/api.php/provide/vod/","searchable":1,"quickSearch":1,"filterable":0},
{"key":"zp143","name":"🔞天堂福利","type":0,"api":"https://bttcj.com/inc/sapi.php","searchable":1,"quickSearch":1,"filterable":0},
{"key":"(18+)JAV名优","name":"🔞JAV名优馆","type":0,"api":"http://mygzycj.com/api.php?ac=list","searchable":1,"quickSearch":1,"filterable":0},
{"key":"酷豆2","name":"🔞酷豆","type":1,"api":"https://api.kdapi.info/api.php/provide/vod/at/json","searchable":1,"quickSearch":1},
{"key":"(18+)乐播","name":"🔞乐播","type":0,"api":"https://lbapi9.com/api.php/provide/vod/at/xml","searchable":1,"quickSearch":1,"filterable":0},
{"key":"zp129","name":"🔞鲨鱼","type":0,"api":"https://shayuapi.com/api.php/provide/vod/at/xml","searchable":1,"quickSearch":1,"filterable":0},
{"key":"zp066","name":"🔞花椒资源","type":0,"api":"https://api.apilyzy.com/api.php/provide/vod/at/xml/","searchable":1,"quickSearch":1,"filterable":0},
{"key":"zp098","name":"🔞老鸭资源","type":0,"api":"http://laoyazy58.com/api.php/provide/vod/at/xml","searchable":1,"quickSearch":1,"filterable":0},
{"key":"*佳丽资源","name":"🔞佳丽","type":1,"api":"http://www.jializyzapi.com/api.php/provide/vod/","searchable":1,"quickSearch":1,"filterable":0},
{"key":"*我要啪啪","name":"🔞我要啪啪","type":0,"api":"http://www.caiji21.com/home/cjapi/klkl/mc10/vod/xml","searchable":1,"quickSearch":1,"filterable":0},
{"key":"*夜夜撸资源","name":"🔞夜夜撸资源","type":0,"api":"https://www.caiji23.com/home/cjapi/kls6/mc10/vod/xml","searchable":1,"quickSearch":1,"filterable":0},
{"key":"*葡萄资源","name":"🔞葡萄资源","type":1,"api":"https://api.putaozy.net/inc/apijson_vod.php","searchable":1,"quickSearch":1,"filterable":0},
{"key":"秀","name":"🔞🈲秀","type":1,"api":"https://api.xiuseapi.com/api.php/provide/vod/","playUrl":"","categories":[],"quickSearch":0},
{"key":"*小姐姐资源","name":"🔞小姐姐资源","type":0,"api":"https://xjjzyapi.com/home/cjapi/askl/mc10/vod/xml","searchable":1,"quickSearch":1,"filterable":0},
{"key":"*草榴视频","name":"🔞草榴视频","type":0,"api":"https://www.caiji02.com/home/cjapi/cfas/mc10/vod/xml","searchable":1,"quickSearch":1,"filterable":0},
{"key":"*52AVAV","name":"🔞52AVAV","type":0,"api":"https://52zyapi.com/home/cjapi/asda/mc10/vod/xml","searchable":1,"quickSearch":1,"filterable":0},
{"key":"*一本道资源","name":"🔞一本道资源","type":0,"api":"https://www.caiji03.com/home/cjapi/cfg8/mc10/vod/xml","searchable":1,"quickSearch":1,"filterable":0},
{"key":"*鲍鱼AV","name":"🔞鲍鱼AV","type":0,"api":"http://caiji26.com/home/cjapi/p0g8/mc10/vod/xml","searchable":1,"quickSearch":1,"filterable":0},
{"key":"*日本AV在线","name":"🔞日本AV在线","type":0,"api":"https://www.caiji07.com/home/cjapi/cfcf/mc10/vod/xml","searchable":1,"quickSearch":1,"filterable":0},
{"key":"*久久热在线","name":"🔞久久热在线","type":0,"api":"https://www.caiji06.com/home/cjapi/cfbb/mc10/vod/xml","searchable":1,"quickSearch":1,"filterable":0},
{"key":"*青青草视频","name":"🔞青青草视频","type":0,"api":"https://www.caiji05.com/home/cjapi/cfda/mc10/vod/xml","searchable":1,"quickSearch":1,"filterable":0},
{"key":"*丝袜资源","name":"🔞丝袜资源","type":1,"api":"https://siwazyw.cc/api.php/provide/vod/","searchable":1,"quickSearch":1,"filterable":0},
{"key":"*麻豆视频","name":"🔞麻豆视频","type":0,"api":"https://www.caiji04.com/home/cjapi/cfc7/mc10/vod/xml","searchable":1,"quickSearch":1,"filterable":0},
{"key":"*亚洲成人在线","name":"🔞亚洲成人在线","type":0,"api":"https://www.caiji01.com/home/cjapi/cfd2/mc10/vod/xml","searchable":1,"quickSearch":1,"filterable":0},
{"key":"*天噜啦资源","name":"🔞天噜啦资源","type":0,"api":"http://www.987caiji.com/api/max.php","searchable":1,"quickSearch":1,"filterable":0},
{"key":"*010爱资源","name":"🔞010爱资源","type":0,"api":"http://www.010aizy.com/API/macs.php","searchable":1,"quickSearch":1,"filterable":0},
{"key":"*爱操资源","name":"🔞爱操资源","type":1,"api":"https://aicaozy.com/api.php/provide/vod/","searchable":1,"quickSearch":1,"filterable":0},
{"key":"*花魁资源","name":"🔞花魁资源","type":1,"api":"https://caiji.huakuiapi.com/inc/apijson_vod.php","searchable":1,"quickSearch":1,"filterable":0},
{"key":"*AV集中淫","name":"🔞AV集中淫","type":0,"api":"https://www.caiji22.com/home/cjapi/klp0/mc10/vod/xml","searchable":1,"quickSearch":1,"filterable":0},
{"key":"*黄瓜TV资源","name":"🔞黄瓜TV资源","type":0,"api":"https://www.caiji10.com/home/cjapi/cfs6/mc10/vod/xml","searchable":1,"quickSearch":1,"filterable":0},
{"key":"*快播盒子资源","name":"🔞快播盒子资源","type":0,"api":"https://www.caiji09.com/home/cjapi/cfp0/mc10/vod/xml","searchable":1,"quickSearch":1,"filterable":0},
{"key":"*大香蕉资源","name":"🔞大香蕉资源","type":0,"api":"https://www.caiji08.com/home/cjapi/cfkl/mc10/vod/xml","searchable":1,"quickSearch":1,"filterable":0},
{"key":"*淫水机资源","name":"🔞淫水机","type":0,"api":"https://www.xrbsp.com/api/xml.php","searchable":1,"quickSearch":1,"filterable":0},
{"key":"91md","name":"🔞91麻豆","type":1,"api":"https://91md.me/api.php/provide/vod/from/mdm3u8/","searchable":1,"quickSearch":1,"filterable":0},
{"key":"影库资源","name":"🔞影库资源","type":1,"api":"https://api.ykapi.net/api.php/provide/vod/from/ykm3u8/","searchable":1,"quickSearch":1,"filterable":0},
{"key":"*乐鱼","name":"🔞乐鱼","type":0,"api":"https://www.leyuzyapi.com/inc/zyapimac.php","playUrl":"https://player.leyuzy.net/?url=","searchable":0,"quickSearch":0,"filterable":0},
{"key":"*CK资源","name":"🔞CK资源","type":1,"api":"http://www.feifei67.com/api.php/provide/vod/","searchable":1,"quickSearch":1,"filterable":0},
{"key":"*白嫖资源","name":"🔞白嫖资源","type":0,"api":"https://www.kxgav.com/api/xml.php","searchable":1,"quickSearch":1,"filterable":0},
{"key":"*香奶儿资源","name":"🔞香奶儿","type":0,"api":"https://www.gdlsp.com/api/xml.php","searchable":1,"quickSearch":1,"filterable":0},
{"key":"*4000资源","name":"🔞4000资源","type":1,"api":"https://www.4000zy.com/inc/apijson_vod.php","searchable":1,"quickSearch":1,"filterable":0},
{"key":"*水蜜桃","name":"🔞水蜜桃","type":1,"api":"http://51smt4.xyz/api.php/provide/vod/","searchable":1,"quickSearch":1,"filterable":0},
{"key":"*草莓资源","name":"🔞草莓资源（慢）","type":1,"api":"https://caiji.caomeiapi.com/inc/apijson_vod.php","searchable":1,"quickSearch":1,"filterable":0},
{"key":"zp137","name":"🔞探探资源（慢）","type":0,"api":"https://apittzy.com/api.php/provide/vod/at/xml/","playUrl":"https://jiexi.ttbfp1.com/m3u8/?url=","searchable":1,"quickSearch":1,"filterable":0},
{"key":"*爱看资源","name":"🔞爱看资源（慢）","type":1,"api":"http://www.aikanzyz9.com/inc/apijson_vod.php","searchable":1,"quickSearch":1,"filterable":0},
{"key":"*万影色","name":"🔞万影色","type":1,"api":"https://wanying4.com/api.php/provide/vod/","searchable":1,"quickSearch":1,"filterable":0},
{"key":"*狼少年","name":"🔞狼少年","type":0,"api":"http://cjmygzy.com/inc/sapi.php?ac=videolist","searchable":1,"quickSearch":1,"filterable":0},
{"key":"*利来资源","name":"🔞利来资源","type":0,"api":"http://llzxcj.com/inc/sck.php?ac=videolist","searchable":1,"quickSearch":1,"filterable":0},
{"key":"*KK写真资源","name":"🔞KK写真资源-伦理","type":1,"api":"https://kkzy.me/api.php/provide/vod/","searchable":1,"quickSearch":1,"filterable":0},
{"key":"*蛋蛋视频","name":"🔞*蛋蛋视频","type":1,"api":"https://156.249.29.8/inc/apijson_vod.php","searchable":1,"quickSearch":1},
{"key":"*金莲资源","name":"🔞*金莲资源","type":1,"api":"https://111kkkkk.com/api.php/provide/vod/","searchable":1,"quickSearch":1},
{"key":"*狼友资源","name":"🔞*狼友资源","type":1,"api":"https://www.langyouzy.com/api.php/provide/vod/","searchable":1,"quickSearch":1},
{"key":"KpgxdyE","name":"🔞黄AV资源(已修复)","type":0,"api":"https://www.pgxdy.com/api/xml.php","searchable":1,"quickSearch":1,"filterable":1},
{"key":"csp_qiepian_ASMR","name":"🔞ASMR(qp)","type":1,"api":"http://www.asmr19.in/api.php/provide/vod/","searchable":1,"quickSearch":1},
{"key":"AList","name":"AList","type":3,"api":"csp_AList","searchable":1,"quickSearch":1,"filterable":1,"ext":"9T$https://drive.9t.ee#木偶$https://www.kugutsu.ml"},
{"key":"drpy_js_猫了个咪","name":"🔞🈲🈲猫了个咪[DRPY18]","type":3,"api":"https://ghproxy.com/https://raw.githubusercontent.com/ShadowDemon1997/CatVodSpiderJS/main/drpy.js","ext":"./js/猫了个咪.js","jar":"./jar/111.png"},
{"key":"drpy_js_吸瓜","name":"🔞🈲🈲吸瓜[DRPY18]","type":3,"api":"https://ghproxy.com/https://raw.githubusercontent.com/ShadowDemon1997/CatVodSpiderJS/main/drpy.js","ext":"./js/吸瓜.js","jar":"./jar/111.png"},
{"key":"drpy_js_黄瓜TV","name":"🔞🈲🈲黄瓜TV[DRPY18]","type":3,"api":"https://ghproxy.com/https://raw.githubusercontent.com/ShadowDemon1997/CatVodSpiderJS/main/drpy.js","ext":"./js/黄瓜TV.js","jar":"./jar/111.png"},
{"key":"drpy_js_banan","name":"🔞🈲🈲banan[DRPY18]","type":3,"api":"https://ghproxy.com/https://raw.githubusercontent.com/ShadowDemon1997/CatVodSpiderJS/main/drpy.js","ext":"https://download.kstore.space/download/2883/PY/js/banan.js","jar":"./jar/111.png"},
{"key":"drpy_js_18av","name":"🔞🈲🈲18av[DRPY18]","type":3,"api":"https://ghproxy.com/https://raw.githubusercontent.com/ShadowDemon1997/CatVodSpiderJS/main/drpy.js","ext":"https://download.kstore.space/download/2883/PY/js/18av.js","jar":"./jar/111.png"},
{"key":"drpy_js_养端","name":"🔞🈲养端（DRPY）","type":3,"api":"https://ghproxy.com/https://raw.githubusercontent.com/ShadowDemon1997/CatVodSpiderJS/main/drpy.js","searchable":1,"quickSearch":1,"filterable":0,"ext":"./js/养端.js","jar":"./jar/111.png"},
{"key":"drpy_js_玩偶姐姐","name":"🔞🈲玩偶姐姐[DRPY18]","type":3,"api":"https://ghproxy.com/https://raw.githubusercontent.com/ShadowDemon1997/CatVodSpiderJS/main/drpy.js","ext":"./js/玩偶姐姐.js","jar":"./jar/111.png"},
{"key":"drpy_js_朱古力","name":"🔞🈲朱古力[DRPY18]","type":3,"api":"https://ghproxy.com/https://raw.githubusercontent.com/ShadowDemon1997/CatVodSpiderJS/main/drpy.js","ext":"./js/朱古力.js","jar":"./jar/111.png"},
{"key":"drpy_js_Missav","name":"🔞🈲Missav[DRPY18]","type":3,"api":"https://ghproxy.com/https://raw.githubusercontent.com/ShadowDemon1997/CatVodSpiderJS/main/drpy.js","ext":"./js/Missav.js","jar":"./jar/111.png"}
],

"parses":[
{"name":"bozrc稳定","type":0,"url":"https://jx.bozrc.com:4433/player/?url="},
{"name":"OKjx解析1","type":0,"url":"https://api.okjx.cc:3389/jx.php?url="},
{"name":"刚刚走过1","type":0,"url":"http://jx.fuqizhishi.com:63/API.php?appkey=feimao&url="},
{"name":"BL解析","type":0,"url":"https://svip.bljiex.cc/?v="},
{"name":"全网视频","type":0,"url":"https://vip.laobandq.com/jiexi.php?url="},
{"name":"m3u8解析1","type":0,"url":"https://jx.m3u8.tv/jiexi/?url="},
{"name":"nxflv解析1","type":0,"url":"https://vip.nxflv.com/home/api?uid=701203&key=bltuyCEFKLTX013679&url="},
{"name":"XMflv虾米解析1","type":0,"url":"https://jx.xmflv.com/?url="},
{"name":"bozrc","type":0,"url":"https://jx.jsonplayer.com/player/?url="},
{"name":"freejson","type":0,"url":"https://h5.freejson.xyz/player/?url="},
{"name":"夜幕解析","type":0,"url":"https://www.yemu.xyz/?url="},
{"name":"365解析","type":0,"url":"https://chaxun.truechat365.com/?url=","header":{"User-Agent":"Mozilla/5.0"}},
{"name":"Q1解析","type":0,"url":"https://parse.ikunfk.cc/parse/sign/8698eafb816d87f28262c8e280c71078?url=","header":{"User-Agent":"Mozilla/5.0"}},
{"name":"爱酷嗅探","type":0,"url":"https://jx.zhanlangbu.com/?url="},
{"name":"麒麟解析","type":0,"url":"https://www.cygqw.com/jiexi/jiekou-2/?url="},
{"name":"诺讯解析","type":0,"url":"https://yun.nxflv.com/?url="},
{"name":"ckplayer","type":0,"url":"https://www.ckplayer.vip/jiexi/?url="},
{"name":"️️ckmov","type":0,"url":"http://www.ckmov.vip/api.php?url="},
{"name":"8090解析","type":0,"url":"https://www.8090g.cn/?url="},
{"name":"刚刚走过2","type":0,"url":"https://play.fuqizhishi.com/xiaobai/API.php?appkey=ganggang&url="},
{"name":"️OKjx解析2","type":0,"url":"https://okjx.cc/?url="},
{"name":"m3u8解析2","type":0,"url":"https://api.m3u8.tv:5678/home/api?type=ys&uid=1931000&key=gktuvyzABEORSYZ135&url="},
{"name":"nxflv解析2","type":0,"url":"https://www.nxflv.com/?url=","ext":{"flag":["youku","优酷","mgtv","芒果","qq","腾讯","qiyi","爱奇艺","qq","奇艺","sohu","letv"]}},
{"name":"XMflv虾米解析2","type":0,"url":"https://dm.xmflv.com:4433/?url="},
{"name":"爱多云解析","type":0,"url":"https://jx.aidouer.net/?url="},
{"name":"盘古云解析","type":0,"url":"https://go.yh0523.cn/y.cy?url="},
{"name":"铭人解析","type":0,"url":"https://parse.123mingren.com/?url="}
],

"flag":["cntv","qq","腾讯","qiyi","iqiyi","爱奇艺","奇艺","youku","优酷","mgtv","imgo","芒果","letv","leshi","乐视","pptv","PPTV","sohu","bilibili","哔哩哔哩","哔哩","xigua","fun","风行"],
"wallpaper":"http://www.kf666888.cn/api/tvbox/img"}
