{
  "urls": [
    {
      "url": "https://mull.vip/TVBox/vip.json",
      "name": "🕍高速稳定"
    },
    {
      "url": "https://gitlab.com/mullvip1/tvbox/-/raw/main/xx.json",
      "name": "✨偷偷的🚫"
    }
  ]
}